*.e=198 
*.computers[0].p=0 
*.computers[1].p=0 
*.computers[2].p=1 
*.computers[3].p=2 
*.computers[4].p=3 
*.computers[5].p=4 
*.computers[6].p=3 
*.computers[7].p=6 
*.computers[8].p=6 
*.computers[9].p=2 
*.computers[10].p=9 
*.computers[11].p=10 
*.computers[12].p=10 
*.computers[13].p=9 
*.computers[14].p=13 
*.computers[15].p=13 
*.computers[16].p=2 
*.computers[17].p=16 
*.computers[18].p=17 
*.computers[19].p=17 
*.computers[20].p=17 
*.computers[21].p=17 
*.computers[22].p=16 
*.computers[23].p=22 
*.computers[24].p=16 
*.computers[25].p=24 
*.computers[26].p=24 
*.computers[27].p=24 
*.computers[28].p=24 
*.computers[29].p=24 
*.computers[30].p=24 
*.computers[31].p=16 
*.computers[32].p=31 
*.computers[33].p=31 
*.computers[34].p=31 
*.computers[35].p=31 
*.computers[36].p=31 
*.computers[37].p=31 
*.computers[38].p=1 
*.computers[39].p=38 
*.computers[40].p=39 
*.computers[41].p=40 
*.computers[42].p=40 
*.computers[43].p=40 
*.computers[44].p=38 
*.computers[45].p=44 
*.computers[46].p=45 
*.computers[47].p=45 
*.computers[48].p=45 
*.computers[49].p=45 
*.computers[50].p=45 
*.computers[51].p=44 
*.computers[52].p=51 
*.computers[53].p=44 
*.computers[54].p=53 
*.computers[55].p=53 
*.computers[56].p=53 
*.computers[57].p=53 
*.computers[58].p=53 
*.computers[59].p=53 
*.computers[60].p=44 
*.computers[61].p=60 
*.computers[62].p=60 
*.computers[63].p=60 
*.computers[64].p=60 
*.computers[65].p=44 
*.computers[66].p=65 
*.computers[67].p=65 
*.computers[68].p=65 
*.computers[69].p=65 
*.computers[70].p=44 
*.computers[71].p=70 
*.computers[72].p=70 
*.computers[73].p=70 
*.computers[74].p=38 
*.computers[75].p=74 
*.computers[76].p=75 
*.computers[77].p=75 
*.computers[78].p=75 
*.computers[79].p=74 
*.computers[80].p=79 
*.computers[81].p=79 
*.computers[82].p=74 
*.computers[83].p=82 
*.computers[84].p=82 
*.computers[85].p=82 
*.computers[86].p=82 
*.computers[87].p=82 
*.computers[88].p=82 
*.computers[89].p=74 
*.computers[90].p=89 
*.computers[91].p=89 
*.computers[92].p=38 
*.computers[93].p=92 
*.computers[94].p=93 
*.computers[95].p=93 
*.computers[96].p=93 
*.computers[97].p=92 
*.computers[98].p=97 
*.computers[99].p=97 
*.computers[100].p=97 
*.computers[101].p=97 
*.computers[102].p=97 
*.computers[103].p=1 
*.computers[104].p=103 
*.computers[105].p=104 
*.computers[106].p=105 
*.computers[107].p=105 
*.computers[108].p=105 
*.computers[109].p=105 
*.computers[110].p=105 
*.computers[111].p=105 
*.computers[112].p=104 
*.computers[113].p=112 
*.computers[114].p=112 
*.computers[115].p=112 
*.computers[116].p=112 
*.computers[117].p=112 
*.computers[118].p=112 
*.computers[119].p=104 
*.computers[120].p=119 
*.computers[121].p=119 
*.computers[122].p=104 
*.computers[123].p=122 
*.computers[124].p=104 
*.computers[125].p=124 
*.computers[126].p=124 
*.computers[127].p=124 
*.computers[128].p=124 
*.computers[129].p=124 
*.computers[130].p=124 
*.computers[131].p=104 
*.computers[132].p=131 
*.computers[133].p=103 
*.computers[134].p=133 
*.computers[135].p=134 
*.computers[136].p=134 
*.computers[137].p=134 
*.computers[138].p=134 
*.computers[139].p=133 
*.computers[140].p=139 
*.computers[141].p=103 
*.computers[142].p=141 
*.computers[143].p=142 
*.computers[144].p=142 
*.computers[145].p=142 
*.computers[146].p=142 
*.computers[147].p=142 
*.computers[148].p=141 
*.computers[149].p=148 
*.computers[150].p=141 
*.computers[151].p=150 
*.computers[152].p=150 
*.computers[153].p=150 
*.computers[154].p=150 
*.computers[155].p=141 
*.computers[156].p=155 
*.computers[157].p=155 
*.computers[158].p=155 
*.computers[159].p=155 
*.computers[160].p=155 
*.computers[161].p=155 
*.computers[162].p=141 
*.computers[163].p=162 
*.computers[164].p=162 
*.computers[165].p=162 
*.computers[166].p=162 
*.computers[167].p=162 
*.computers[168].p=103 
*.computers[169].p=168 
*.computers[170].p=169 
*.computers[171].p=1 
*.computers[172].p=171 
*.computers[173].p=172 
*.computers[174].p=173 
*.computers[175].p=172 
*.computers[176].p=175 
*.computers[177].p=175 
*.computers[178].p=172 
*.computers[179].p=178 
*.computers[180].p=178 
*.computers[181].p=178 
*.computers[182].p=172 
*.computers[183].p=182 
*.computers[184].p=182 
*.computers[185].p=182 
*.computers[186].p=182 
*.computers[187].p=182 
*.computers[188].p=171 
*.computers[189].p=188 
*.computers[190].p=189 
*.computers[191].p=189 
*.computers[192].p=189 
*.computers[193].p=189 
*.computers[194].p=189 
*.computers[195].p=188 
*.computers[196].p=195 
*.computers[197].p=195 
